%YAML 1.1
%TAG !u! tag:unity3d.com,2011:
--- !u!114 &11400000
MonoBehaviour:
  m_ObjectHideFlags: 0
  m_CorrespondingSourceObject: {fileID: 0}
  m_PrefabInstance: {fileID: 0}
  m_PrefabAsset: {fileID: 0}
  m_GameObject: {fileID: 0}
  m_Enabled: 1
  m_EditorHideFlags: 0
  m_Script: {fileID: 11500000, guid: eda1802cd687a8045a119c4972fde6f3, type: 3}
  m_Name: Wave 0
  m_EditorClassIdentifier: 
  pathPrefab: {fileID: 9003292045019469298, guid: 46daecbf8b832304f8309ec787969f79, type: 3}
  moveSpeed: 5
  timeBetweenEnemySpawns: 1
  spawnTimeVariance: 0.5
  minimumSpawnTime: 0.2
  enemyPrefabs:
  - {fileID: 6435534477139625169, guid: fac42895dadd1ce449cdc96163c92a6e, type: 3}
  - {fileID: 6435534477139625169, guid: fac42895dadd1ce449cdc96163c92a6e, type: 3}
  - {fileID: 6435534477139625169, guid: fac42895dadd1ce449cdc96163c92a6e, type: 3}
